<?xml version="1.0" encoding="UTF-8" standalone="no"?>
<!-- Created with Inkscape (http://www.inkscape.org/) -->

<svg
   version="1.1"
   id="svg192"
   width="64"
   height="64"
   viewBox="0 0 64 64"
   sodipodi:docname="physics.svg"
   inkscape:version="1.2.2 (b0a8486541, 2022-12-01)"
   xmlns:inkscape="http://www.inkscape.org/namespaces/inkscape"
   xmlns:sodipodi="http://sodipodi.sourceforge.net/DTD/sodipodi-0.dtd"
   xmlns:xlink="http://www.w3.org/1999/xlink"
   xmlns="http://www.w3.org/2000/svg"
   xmlns:svg="http://www.w3.org/2000/svg">
  <defs
     id="defs196" />
  <sodipodi:namedview
     id="namedview194"
     pagecolor="#ffffff"
     bordercolor="#666666"
     borderopacity="1.0"
     inkscape:showpageshadow="2"
     inkscape:pageopacity="0.0"
     inkscape:pagecheckerboard="0"
     inkscape:deskcolor="#d1d1d1"
     showgrid="false"
     inkscape:zoom="5.6568545"
     inkscape:cx="28.726212"
     inkscape:cy="21.213202"
     inkscape:window-width="1920"
     inkscape:window-height="1011"
     inkscape:window-x="0"
     inkscape:window-y="0"
     inkscape:window-maximized="1"
     inkscape:current-layer="g198" />
  <g
     inkscape:groupmode="layer"
     inkscape:label="Image"
     id="g198">
    <circle
       style="fill:#ffd42a;fill-opacity:1;stroke-width:1px;stop-color:#000000"
       id="path412"
       cx="32"
       cy="32"
       r="32" />
    <path
       style="font-variation-settings:normal;opacity:1;vector-effect:none;fill:#ffffff;fill-opacity:1;stroke:none;stroke-width:1px;stroke-linecap:butt;stroke-linejoin:miter;stroke-miterlimit:4;stroke-dasharray:none;stroke-dashoffset:0;stroke-opacity:1;-inkscape-stroke:none;stop-color:#000000;stop-opacity:1"
       d="M 30.973993,12.468845 H 42.82538 l -8.086681,13.131077 h 8.884436 l -23.028321,27.3342 8.160083,-19.645429 h -7.836861 z"
       id="path1092"
       sodipodi:nodetypes="cccccccc" />
    <g
       id="g1891"
       transform="matrix(1.0121631,0,0,1.0121631,-0.3892197,-1.1434978)"
       style="stroke-width:0.987983;fill:#ffffff">
      <g
         id="g1282"
         style="fill:#ffffff;stroke-width:0.987983">
        <path
           id="path1242"
           style="opacity:1;fill:#ffffff;fill-opacity:1;stroke:none;stroke-width:0.987983px;stop-color:#000000"
           d="m 6.1046314,25.60781 c -1.1124843,2.214858 -1.6919594,4.659066 -1.6919734,7.137616 -3.17e-5,5.681235 3.030859,10.930897 7.950869,13.771659 0.573589,0.331185 1.306996,0.134655 1.638163,-0.438944 0.331168,-0.573599 0.134668,-1.307019 -0.438944,-1.638163 -4.1783921,-2.412169 -6.752462,-6.870342 -6.7524619,-11.69502 0,-4.824468 2.5735529,-9.28299 6.7519529,-11.694725 0.573695,-0.331132 0.771367,-1.064063 0.44045,-1.637882 -0.331057,-0.57406 -1.065004,-0.770173 -1.638857,-0.438758 -2.6892498,1.553108 -4.865306,3.859101 -6.2591986,6.634217 z"
           sodipodi:nodetypes="ssssssssss" />
        <path
           id="path1248"
           style="opacity:1;fill:#ffffff;fill-opacity:1;stroke:none;stroke-width:0.987983px;stop-color:#000000"
           d="m 14.784936,29.967613 c -0.43288,0.861791 -0.658246,1.812816 -0.658467,2.777218 -5.07e-4,2.209148 1.176431,4.251099 3.088429,5.357715 0.0017,0.001 0.0034,0.002 0.0051,0.0029 5.64e-4,3.24e-4 0.0011,6.51e-4 0.0017,10e-4 0.574401,0.33036 1.307827,0.133216 1.63914,-0.440636 0.331314,-0.573851 0.135344,-1.307609 -0.437968,-1.639855 -0.489518,-0.283685 0.0011,-0.0011 0.001,-0.0017 -1.69e-4,-6.28e-4 -0.0011,-6.5e-4 -0.0017,-10e-4 -1.170729,-0.676307 -1.891975,-1.925658 -1.891975,-3.277693 0,-1.352283 0.721509,-2.601826 1.892579,-3.278042 0.574369,-0.33166 0.770904,-1.065895 0.439734,-1.640548 -0.33175,-0.575536 -1.067092,-0.772988 -1.642299,-0.440692 -1.046253,0.60442 -1.892925,1.501584 -2.435283,2.581315 z"
           sodipodi:nodetypes="ssssssssssssss" />
        <path
           id="path1252"
           style="opacity:1;fill:#ffffff;fill-opacity:1;stroke:none;stroke-width:0.987983px;stop-color:#000000"
           d="m 11.810202,32.744911 c 4.02e-4,-3.038125 1.62064,-5.845917 4.251953,-7.364599 0.573681,-0.331105 0.771354,-1.064084 0.440449,-1.637881 -0.331044,-0.574039 -1.065071,-0.770241 -1.638858,-0.438759 -1.843328,1.064908 -3.33467,2.645898 -4.290287,4.548181 -0.7628268,1.518516 -1.1615418,3.194173 -1.1608838,4.893525 0.0015,3.862342 2.1181138,7.489715 5.4499748,9.443272 0.571345,0.334992 1.307009,0.134633 1.638164,-0.438945 0.330775,-0.572917 0.135639,-1.306368 -0.43812,-1.637687 -2.632387,-1.520078 -4.252795,-4.328353 -4.252392,-7.367107 z"
           sodipodi:nodetypes="ssssssssss" />
      </g>
      <use
         x="0"
         y="0"
         xlink:href="#g1282"
         id="use1884"
         transform="matrix(-1,0,0,1,64.215331,0)"
         style="stroke-width:0.987983;fill:#ffffff" />
    </g>
  </g>
</svg>
