{
  "systems": [
    {
      "n_t": 2,
      "beta_s": 0.0,
      "a": 0.4,
      "d": 0.0319,
      "U": 420000.0,
      "phi_U": 0.0,
      "I": 1920.0,
      "phi_I": 0.0,
      "phases": [
        {
          "x": -7.5,
          "y": 0.0
        },
        {
          "x": -9.5,
          "y": 9.0
        },
        {
          "x": -6.0,
          "y": 18.5
        }
      ],
      "shield": {
        "d": 10.0,
        "R_i": 150.0,
        "enabled": true
      }
    },
    {
      "n_t": 2,
      "beta_s": 0.0,
      "a": 0.4,
      "d": 0.0319,
      "U": 420000.0,
      "phi_U": 0.0,
      "I": 1920.0,
      "phi_I": 0.0,
      "phases": [
        {
          "x": 6.0,
          "y": 18.5
        },
        {
          "x": 9.5,
          "y": 9.0
        },
        {
          "x": 7.5,
          "y": 0.0
        }
      ],
      "shield": {
        "d": 2.0,
        "R_i": 25.0,
        "enabled": true
      }
    }
  ],
  "guardwires": [
    {
      "x": 0.0,
      "y": 29.0,
      "d": 0.026,
      "R_i": 0.002
    }
  ],
  "n": 0,
  "transverse_profile": {
    "m": 401,
    "x_min": -100.0,
    "x_max": 100.0,
    "y": 1.0,
    "columns": {
      "with_e_abs": false,
      "with_e_components": false,
      "with_b_abs": false,
      "with_b_components": false
    },
    "plots": {
      "with_conductor_picture": false,
      "with_e_profile": false,
      "with_b_profile": false
    }
  },
  "corona_sound": {
    "enabled": false
  },
  "figures": {
    "u": {
      "x_range": {
        "start": -50.0,
        "end": 50.0
      },
      "y_range": {
        "start": -20.0,
        "end": 80.0
      },
      "with_subgrid": true,
      "width": 1000.0,
      "plots": {
        "contour_lines": {
          "enabled": true,
          "resolution": 1.0,
          "levels": [
            {
              "value": 100.0,
              "color": "#300000"
            },
            {
              "value": 200.0,
              "color": "#1a0e9f"
            },
            {
              "value": 500.0,
              "color": "#4444f4"
            },
            {
              "value": 1000.0,
              "color": "#29a192"
            },
            {
              "value": 2000.0,
              "color": "#ead180"
            },
            {
              "value": 5000.0,
              "color": "#6ba129"
            },
            {
              "value": 10000.0,
              "color": "#ff7600"
            },
            {
              "value": 20000.0,
              "color": "#ee0818"
            }
          ]
        }
      }
    },
    "a": {
      "x_range": {
        "start": -50.0,
        "end": 50.0
      },
      "y_range": {
        "start": -20.0,
        "end": 80.0
      },
      "with_subgrid": false,
      "width": 1000.0,
      "plots": {
        "contour_lines": {
          "enabled": true,
          "resolution": 1.0,
          "levels": [
            {
              "value": 0.1,
              "color": "#a05050"
            },
            {
              "value": 0.2,
              "color": "#f1bab0"
            },
            {
              "value": 0.5,
              "color": "#3fff00"
            },
            {
              "value": 1.0,
              "color": "#3b6300"
            },
            {
              "value": 2.0,
              "color": "#59f511"
            },
            {
              "value": 5.0,
              "color": "#6ea309"
            },
            {
              "value": 10.0,
              "color": "#7d7d61"
            },
            {
              "value": 20.0,
              "color": "#b8690d"
            },
            {
              "value": 50.0,
              "color": "#f6692c"
            },
            {
              "value": 100.0,
              "color": "#79030a"
            },
            {
              "value": 200.0,
              "color": "#f2030a"
            },
            {
              "value": 500.0,
              "color": "#803030"
            }
          ]
        }
      }
    }
  },
  "y_ref": 17.0,
  "alpha": 0.0,
  "rho": 200.0,
  "f_grid": 50.0
}
