<?xml version="1.0" encoding="UTF-8" standalone="no"?>
<!-- Created with Inkscape (http://www.inkscape.org/) -->

<svg
   width="211.98195mm"
   height="173.71072mm"
   viewBox="0 0 211.98195 173.71072"
   version="1.1"
   id="svg5517"
   inkscape:version="1.3.2 (091e20ef0f, 2023-11-25)"
   sodipodi:docname="vector_components.svg"
   xmlns:inkscape="http://www.inkscape.org/namespaces/inkscape"
   xmlns:sodipodi="http://sodipodi.sourceforge.net/DTD/sodipodi-0.dtd"
   xmlns="http://www.w3.org/2000/svg"
   xmlns:svg="http://www.w3.org/2000/svg"
   xmlns:rdf="http://www.w3.org/1999/02/22-rdf-syntax-ns#"
   xmlns:cc="http://creativecommons.org/ns#"
   xmlns:dc="http://purl.org/dc/elements/1.1/">
  <defs
     id="defs5511" />
  <sodipodi:namedview
     id="base"
     pagecolor="#ffffff"
     bordercolor="#666666"
     borderopacity="1.0"
     inkscape:pageopacity="0.0"
     inkscape:pageshadow="2"
     inkscape:zoom="0.98994949"
     inkscape:cx="272.74119"
     inkscape:cy="364.15999"
     inkscape:document-units="mm"
     inkscape:current-layer="layer1"
     showgrid="false"
     inkscape:window-width="1920"
     inkscape:window-height="1011"
     inkscape:window-x="0"
     inkscape:window-y="0"
     inkscape:window-maximized="1"
     fit-margin-top="0"
     fit-margin-left="0"
     fit-margin-right="0"
     fit-margin-bottom="0"
     inkscape:showpageshadow="2"
     inkscape:pagecheckerboard="0"
     inkscape:deskcolor="#d1d1d1" />
  <metadata
     id="metadata5514">
    <rdf:RDF>
      <cc:Work
         rdf:about="">
        <dc:format>image/svg+xml</dc:format>
        <dc:type
           rdf:resource="http://purl.org/dc/dcmitype/StillImage" />
      </cc:Work>
    </rdf:RDF>
  </metadata>
  <g
     inkscape:label="Layer 1"
     inkscape:groupmode="layer"
     id="layer1"
     transform="translate(1.1920084,-10.972157)">
    <rect
       style="fill:#ffffff;stroke-width:0.269155;stroke-linecap:round;stroke-linejoin:round;-inkscape-stroke:none"
       id="rect1"
       width="211.98195"
       height="173.71072"
       x="-1.1920084"
       y="10.972157" />
    <path
       d="M 27.474109,182.40821 V 27.447394 c 0,-0.330224 0.330225,-0.660468 0.660449,-0.660468 0.330244,0 0.577917,0.330244 0.577917,0.660468 V 182.40821 c 0,0.33024 -0.247673,0.66046 -0.577917,0.66046 -0.330224,0 -0.660449,-0.33022 -0.660449,-0.66046 z M 25.16248,31.245042 l 2.972078,-5.036014 2.972078,5.036014 c 0.16518,0.330244 0,0.660468 -0.247674,0.82559 -0.330224,0.165181 -0.660448,0.08249 -0.82557,-0.16518 l -2.39418,-4.127892 h 0.990692 l -2.39416,4.127892 c -0.165181,0.247673 -0.495347,0.330224 -0.825591,0.16518 -0.330224,-0.16518 -0.412775,-0.495346 -0.247673,-0.82559 z"
       style="fill:#000000;fill-opacity:1;fill-rule:nonzero;stroke:none;stroke-width:0.352778"
       id="path5143"
       inkscape:connector-curvature="0" />
    <path
       d="M 4.6056156,166.14435 H 190.52559 c 0.33022,0 0.66046,0.24768 0.66046,0.5779 0,0.33022 -0.33024,0.66047 -0.66046,0.66047 H 4.6056156 c -0.3302244,0 -0.5778975,-0.33025 -0.5778975,-0.66047 0,-0.33022 0.2476731,-0.5779 0.5778975,-0.5779 z m 182.1223244,-2.39418 5.03601,2.97208 -5.03601,2.97208 c -0.33025,0.16518 -0.66047,0.0825 -0.82559,-0.24768 -0.16518,-0.33022 -0.0825,-0.66046 0.16518,-0.82557 l 4.12789,-2.39418 v 1.07325 l -4.12789,-2.47673 c -0.24767,-0.16518 -0.33023,-0.49535 -0.16518,-0.82558 0.16518,-0.33022 0.49534,-0.41279 0.82559,-0.24767 z"
       style="fill:#000000;fill-opacity:1;fill-rule:nonzero;stroke:none;stroke-width:0.352778"
       id="path5145"
       inkscape:connector-curvature="0" />
    <path
       d="m 70.651787,43.793821 c 0,-1.073244 0.908141,-1.898834 2.063936,-1.898834 0,0 0,0 0,0 v 0 c 1.155815,0 2.063956,0.82559 2.063956,1.898834 0,0 0,0 0,0 v 0 c 0,0.990693 -0.908141,1.816263 -2.063956,1.816263 0,0 0,0 0,0 v 0 c -1.155795,0 -2.063936,-0.82557 -2.063936,-1.816263 z"
       style="fill:#000000;fill-opacity:1;fill-rule:evenodd;stroke:none;stroke-width:0.352778"
       id="path5147"
       inkscape:connector-curvature="0" />
    <path
       d="m 69.991319,43.876372 c 0,-0.08249 0,-0.16518 0,-0.16518 l 0.08249,-0.412795 c 0,0 0,-0.08249 0,-0.08249 l 0.165181,-0.330244 c 0,-0.08249 0,-0.08249 0,-0.16518 l 0.247673,-0.330244 c 0,0 0,-0.08249 0.08249,-0.08249 l 0.247673,-0.247673 c 0,-0.08249 0,-0.08249 0.08249,-0.08249 l 0.247673,-0.247673 c 0.08249,0 0.08249,0 0.08249,-0.08249 l 0.412815,-0.165181 c 0,0 0.08249,0 0.08249,0 l 0.412796,-0.16518 c 0,0 0.08249,0 0.08249,0 h 0.412795 c 0,0 0.08249,0 0.08249,0 h 0.412795 c 0.08249,0 0.08249,0 0.165181,0 l 0.330224,0.16518 c 0.08249,0 0.08249,0 0.16518,0 l 0.330225,0.165181 c 0,0.08249 0.08249,0.08249 0.08249,0.08249 l 0.330244,0.247673 c 0,0 0.08249,0 0.08249,0.08249 l 0.247673,0.247673 c 0,0 0.08249,0.08249 0.08249,0.08249 l 0.16518,0.330244 c 0,0.08249 0.08249,0.08249 0.08249,0.16518 l 0.08249,0.330244 c 0,0 0.08249,0.08249 0.08249,0.08249 v 0.412795 c 0,0 0,0.08249 0,0.16518 v 0.330244 c 0,0.08249 -0.08249,0.08249 -0.08249,0.165181 l -0.08249,0.330224 c 0,0 -0.08249,0.08249 -0.08249,0.08249 l -0.16518,0.330224 c 0,0.08249 -0.08249,0.08249 -0.08249,0.08249 l -0.247673,0.330244 c 0,0 -0.08249,0 -0.08249,0.08249 L 74.20147,45.77514 c 0,0.08249 -0.08249,0.08249 -0.08249,0.08249 l -0.330244,0.165181 c -0.08249,0 -0.08249,0.08249 -0.16518,0.08249 l -0.330224,0.08249 c -0.08249,0 -0.08249,0 -0.165181,0 l -0.412795,0.08249 c 0,0 -0.08249,0 -0.08249,0 l -0.412775,-0.08249 c 0,0 -0.08249,0 -0.08249,0 l -0.412795,-0.08249 c 0,0 -0.08249,-0.08249 -0.08249,-0.08249 L 71.312099,45.85764 c -0.08249,0 -0.08249,0 -0.165181,-0.08249 l -0.247673,-0.165181 c -0.08249,-0.08249 -0.08249,-0.08249 -0.08249,-0.08249 l -0.330244,-0.330244 c 0,0 0,0 0,-0.08249 l -0.247673,-0.330224 c 0,0 0,-0.08249 0,-0.08249 l -0.165181,-0.330224 c 0,-0.08249 0,-0.08249 0,-0.165181 z m 1.320936,0.165181 -0.08249,-0.08249 0.165181,0.330224 -0.08249,-0.08249 0.16518,0.247673 v -0.08249 l 0.247674,0.330224 -0.08249,-0.08249 0.247673,0.16518 h -0.08249 l 0.330225,0.165181 -0.08249,-0.08249 0.412795,0.16518 -0.16518,-0.08249 0.412775,0.08249 h -0.08269 l 0.412795,-0.08249 -0.08249,0.08249 0.330224,-0.16518 -0.08249,0.08249 0.330244,-0.165181 h -0.08249 l 0.330224,-0.16518 -0.08249,0.08249 0.247673,-0.330224 -0.08249,0.08249 0.16518,-0.247673 v 0.08249 l 0.08249,-0.330224 v 0.08249 -0.330225 0.165181 -0.412776 0.165181 l -0.08249,-0.412776 v 0.165181 l -0.16518,-0.330225 0.08249,0.08249 -0.247673,-0.247673 0.08249,0.08249 -0.330224,-0.247674 0.08249,0.08249 -0.330244,-0.16518 h 0.08249 l -0.330224,-0.08249 h 0.08249 -0.412795 0.08249 -0.412775 0.16518 l -0.412795,0.08249 h 0.08269 l -0.330225,0.16518 0.08249,-0.08249 -0.247673,0.247674 0.08249,-0.08249 -0.247674,0.247673 v -0.08249 l -0.16518,0.330225 0.08249,-0.165181 -0.165181,0.412776 0.08249,-0.165181 -0.08249,0.412776 v -0.165181 z"
       style="fill:#000000;fill-opacity:1;fill-rule:nonzero;stroke:none;stroke-width:0.352778"
       id="path5149"
       inkscape:connector-curvature="0" />
    <path
       d="m 117.62713,117.93064 c 0,-1.15581 0.90812,-2.06394 1.89882,-2.06394 0,0 0,0 0,0 v 0 c 0.99069,0 1.81628,0.90813 1.81628,2.06394 0,0 0,0 0,0 v 0 c 0,1.15582 -0.82559,2.06394 -1.81628,2.06394 0,0 0,0 0,0 v 0 c -0.9907,0 -1.89882,-0.90812 -1.89882,-2.06394 z"
       style="fill:#000000;fill-opacity:1;fill-rule:evenodd;stroke:none;stroke-width:0.352778"
       id="path5151"
       inkscape:connector-curvature="0" />
    <path
       d="m 117.04922,118.01319 c 0,0 0,-0.0825 0,-0.0825 v -0.4128 c 0,-0.0825 0.0825,-0.0825 0.0825,-0.16518 l 0.0825,-0.33022 c 0,-0.0825 0,-0.0825 0,-0.16518 l 0.24767,-0.33023 c 0,0 0,-0.0825 0,-0.0825 l 0.24768,-0.33024 c 0,0 0.0825,-0.0825 0.0825,-0.0825 l 0.24767,-0.24768 c 0.0825,0 0.0825,-0.0825 0.16518,-0.0825 l 0.24768,-0.16518 c 0.0825,0 0.0825,-0.0825 0.16518,-0.0825 l 0.33024,-0.0825 c 0,0 0.0825,-0.0825 0.16518,-0.0825 h 0.33023 c 0.0825,0 0.0825,0 0.16518,0 h 0.33022 c 0.0825,0 0.16518,0.0825 0.16518,0.0825 l 0.33022,0.0825 c 0.0825,0 0.0825,0.0825 0.16519,0.0825 l 0.24767,0.16518 c 0.0825,0 0.0825,0.0825 0.16518,0.0825 l 0.24767,0.24768 c 0,0 0.0825,0.0825 0.0825,0.0825 l 0.24768,0.33024 c 0,0 0,0.0825 0,0.0825 l 0.16518,0.33023 c 0.0825,0.0825 0.0825,0.0825 0.0825,0.16518 l 0.0825,0.33022 c 0,0.0825 0,0.0825 0,0.16518 l 0.0825,0.4128 c 0,0 0,0.0825 0,0.0825 l -0.0825,0.4128 c 0,0.0825 0,0.0825 0,0.0825 l -0.0825,0.4128 c 0,0.0825 0,0.0825 -0.0825,0.0825 l -0.16518,0.41277 c 0,0 0,0 0,0.0825 l -0.24768,0.33024 c 0,0 -0.0825,0 -0.0825,0.0825 l -0.24767,0.24768 c -0.0825,0 -0.0825,0 -0.16518,0.0825 l -0.24767,0.16518 c -0.0825,0 -0.0825,0 -0.16519,0.0825 l -0.33022,0.0825 c -0.0825,0 -0.0825,0 -0.16518,0 l -0.33022,0.0825 c -0.0825,0 -0.0825,0 -0.16518,0 l -0.33023,-0.0825 c -0.0825,0 -0.16518,0 -0.16518,0 l -0.33024,-0.0825 c -0.0825,-0.0825 -0.0825,-0.0825 -0.16518,-0.0825 l -0.24768,-0.16518 c -0.0825,-0.0825 -0.0825,-0.0825 -0.16518,-0.0825 l -0.24767,-0.24768 c 0,-0.0825 -0.0825,-0.0825 -0.0825,-0.0825 l -0.24768,-0.33024 c 0,-0.0825 0,-0.0825 0,-0.0825 l -0.24767,-0.41277 c 0,0 0,0 0,-0.0825 l -0.0825,-0.4128 c 0,0 -0.0825,0 -0.0825,-0.0825 z m 1.23836,0.33025 v -0.16518 l 0.0825,0.41279 v -0.0825 l 0.16518,0.33022 -0.0825,-0.0825 0.24767,0.33022 -0.0825,-0.16518 0.24767,0.33025 -0.0825,-0.0825 0.33025,0.16519 -0.0825,-0.0825 0.33023,0.16518 -0.16518,-0.0825 0.41279,0.0825 h -0.16518 l 0.41278,-0.0825 -0.16518,0.0825 0.33024,-0.16518 -0.0825,0.0825 0.33022,-0.16519 -0.16518,0.0825 0.33023,-0.33025 -0.0825,0.16518 0.24768,-0.33022 -0.0825,0.0825 0.16518,-0.33022 v 0.0825 l 0.0825,-0.41279 v 0.16518 -0.4128 0.0825 -0.41277 0.0825 l -0.0825,-0.33024 v 0.0825 l -0.16518,-0.33022 0.0825,0.0825 -0.24768,-0.33023 0.0825,0.0825 -0.33023,-0.24768 0.16518,0.0825 -0.33022,-0.16518 h 0.0825 l -0.33024,-0.0825 h 0.16518 -0.41278 0.16518 -0.41279 0.16518 l -0.33023,0.0825 h 0.0825 l -0.33025,0.16518 0.0825,-0.0825 -0.24767,0.24768 0.0825,-0.0825 -0.24767,0.33023 0.0825,-0.0825 -0.16518,0.33022 v -0.0825 l -0.0825,0.33024 v -0.0825 0.41277 -0.0825 z"
       style="fill:#000000;fill-opacity:1;fill-rule:nonzero;stroke:none;stroke-width:0.352778"
       id="path5153"
       inkscape:connector-curvature="0" />
    <path
       d="m 74.86223,44.536841 43.17768,70.091499 c 0.24767,0.41277 0.0825,0.90812 -0.33023,1.15579 -0.33022,0.24768 -0.82557,0.0825 -1.07324,-0.33022 L 73.458742,45.444982 c -0.247673,-0.412795 -0.16518,-0.908141 0.247674,-1.155815 0.412795,-0.247673 0.908141,-0.08249 1.155814,0.247674 z m 43.09513,64.725239 0.24767,7.18252 -6.35695,-3.38487 c -0.41278,-0.16518 -0.5779,-0.66045 -0.33023,-1.07324 0.24768,-0.4128 0.74302,-0.5779 1.15582,-0.33023 l 5.03601,2.64184 -1.23836,0.74301 -0.16518,-5.69648 c 0,-0.49534 0.41277,-0.82557 0.82557,-0.82557 0.49534,0 0.82557,0.33023 0.82557,0.74302 z"
       style="fill:#000000;fill-opacity:1;fill-rule:nonzero;stroke:none;stroke-width:0.352778"
       id="path5155"
       inkscape:connector-curvature="0" />
    <path
       d="m 71.394806,42.14266 -0.577897,76.69612 c 0,0.24768 -0.165181,0.41278 -0.412795,0.41278 -0.165181,0 -0.412795,-0.16518 -0.412795,-0.41278 l 0.577917,-76.69612 c 0,-0.247673 0.16518,-0.412775 0.412775,-0.412775 0.247673,0 0.412795,0.16518 0.412795,0.412775 z m 1.816263,72.8159 -2.806955,4.70579 -2.724405,-4.78834 c -0.08249,-0.16518 0,-0.41279 0.16518,-0.57791 0.165181,-0.0825 0.412796,0 0.577898,0.16518 l 2.39418,4.12789 h -0.743019 l 2.476731,-4.04532 c 0.08249,-0.24768 0.330224,-0.33025 0.495346,-0.16518 0.247674,0.0825 0.330225,0.33022 0.165181,0.57789 z"
       style="fill:#000000;fill-opacity:1;fill-rule:nonzero;stroke:none;stroke-width:0.352778"
       id="path5157"
       inkscape:connector-curvature="0" />
    <path
       d="m 70.404114,119.41668 h 47.966036 c 0.16518,0 0.41278,0.16518 0.41278,0.41279 0,0.24768 -0.24768,0.41278 -0.41278,0.41278 H 70.404114 c -0.247674,0 -0.412795,-0.16518 -0.412795,-0.41278 0,-0.24767 0.16518,-0.41279 0.412795,-0.41279 z m 44.003266,-2.39418 4.78834,2.80697 -4.78834,2.72441 c -0.16518,0.16518 -0.41279,0.0825 -0.57792,-0.0825 -0.0825,-0.24768 0,-0.49535 0.16518,-0.5779 l 4.1279,-2.39418 v 0.66047 l -4.1279,-2.39418 c -0.16518,-0.0825 -0.24767,-0.4128 -0.16518,-0.5779 0.16518,-0.16518 0.4128,-0.24767 0.57792,-0.16518 z"
       style="fill:#000000;fill-opacity:1;fill-rule:nonzero;stroke:none;stroke-width:0.352778"
       id="path5159"
       inkscape:connector-curvature="0" />
    <path
       d="M 119.69107,120.48992 80.063366,146.9084 c -0.330224,0.24767 -0.908141,0.16518 -1.155814,-0.16518 -0.247674,-0.41278 -0.08249,-0.90812 0.247673,-1.1558 L 118.78293,119.0864 c 0.33024,-0.24768 0.82559,-0.0825 1.07326,0.24767 0.24767,0.41278 0.16518,0.90812 -0.16518,1.1558 z m -34.261446,26.25336 -7.182521,0.41279 3.13718,-6.4395 c 0.247673,-0.4128 0.743019,-0.5779 1.155814,-0.33022 0.330225,0.16518 0.577898,0.66044 0.330225,1.07324 l -2.476732,5.11858 -0.82557,-1.15581 5.696482,-0.33022 c 0.495346,-0.0825 0.908141,0.33022 0.908141,0.74301 0,0.49535 -0.330244,0.82558 -0.743019,0.90813 z"
       style="fill:#008000;fill-opacity:1;fill-rule:nonzero;stroke:none;stroke-width:0.352778"
       id="path5187"
       inkscape:connector-curvature="0" />
    <path
       d="m 120.92943,116.11438 -0.57789,30.38122 c 0,0.24768 -0.16518,0.4128 -0.4128,0.4128 -0.24767,0 -0.41279,-0.16518 -0.41279,-0.4128 l 0.57791,-30.38122 c 0,-0.24768 0.16518,-0.4128 0.41278,-0.4128 0.24767,0 0.41279,0.16518 0.41279,0.4128 z m 1.81627,26.50102 -2.80696,4.70579 -2.64185,-4.78836 c -0.16518,-0.16518 -0.0825,-0.41277 0.0825,-0.57789 0.24767,-0.0825 0.49535,0 0.57792,0.16518 l 2.31161,4.21044 h -0.66047 l 2.47673,-4.12789 c 0.0825,-0.16518 0.33024,-0.24768 0.57792,-0.0825 0.16518,0.0825 0.24767,0.33025 0.0825,0.49535 z"
       style="fill:#008000;fill-opacity:1;fill-rule:nonzero;stroke:none;stroke-width:0.352778"
       id="path5189"
       inkscape:connector-curvature="0" />
    <path
       d="m 119.93874,147.07352 -39.627701,-1.15581 c -0.247673,-0.0825 -0.412795,-0.24768 -0.412795,-0.49535 0,-0.16518 0.165181,-0.4128 0.412795,-0.33022 l 39.627701,1.15579 c 0.24767,0 0.4128,0.24767 0.4128,0.4128 0,0.24767 -0.16518,0.41279 -0.4128,0.41279 z m -35.830053,1.23837 -4.623218,-2.88953 4.870892,-2.64185 c 0.16518,-0.0825 0.412795,0 0.495346,0.16518 0.16518,0.24767 0.08249,0.49534 -0.165181,0.57791 l -4.210443,2.31161 0.08249,-0.74302 4.045341,2.55929 v 0 c 0.16518,0.0825 0.247673,0.41279 0.08249,0.57791 -0.08249,0.16518 -0.330243,0.24768 -0.577917,0.0825 z"
       style="fill:#008000;fill-opacity:1;fill-rule:nonzero;stroke:none;stroke-width:0.352778"
       id="path5191"
       inkscape:connector-curvature="0" />
    <g
       style="font-style:normal;font-variant:normal;font-weight:normal;font-stretch:normal;letter-spacing:normal;word-spacing:normal;text-anchor:start;fill:none;fill-opacity:1;fill-rule:evenodd;stroke:#000000;stroke-linecap:butt;stroke-linejoin:miter;stroke-miterlimit:10.433;stroke-dasharray:none;stroke-dashoffset:0;stroke-opacity:1"
       id="g6251"
       transform="matrix(0.3,0,0,-0.3,-10.095857,236.02599)"
       xml:space="preserve"
       stroke-miterlimit="10.433"
       font-style="normal"
       font-variant="normal"
       font-weight="normal"
       font-stretch="normal"
       font-size-adjust="none"
       letter-spacing="normal"
       word-spacing="normal"><path
         style="fill:#000000;stroke-width:0"
         inkscape:connector-curvature="0"
         d="m 482.22,426.18 -0.16,-0.05 -0.16,-0.05 -0.16,-0.07 -0.15,-0.07 -0.14,-0.07 -0.14,-0.08 -0.14,-0.09 -0.13,-0.09 -0.12,-0.1 -0.12,-0.1 -0.11,-0.1 -0.11,-0.11 -0.1,-0.11 -0.1,-0.11 -0.09,-0.12 -0.08,-0.12 -0.09,-0.12 -0.07,-0.12 -0.07,-0.13 -0.07,-0.13 -0.06,-0.12 -0.05,-0.13 -0.05,-0.13 -0.05,-0.13 -0.04,-0.12 -0.03,-0.13 -0.03,-0.13 -0.02,-0.12 -0.02,-0.13 -0.01,-0.12 -0.01,-0.12 v -0.11 c 0,-1.11 0.84,-2.3 2.48,-2.3 1.75,0 3.59,1.44 3.59,3.89 0,2.64 -2.64,4.37 -5.68,4.37 -2.83,0 -4.68,-2.14 -5.33,-3.03 -1.24,2.1 -4.03,3.03 -6.88,3.03 -6.28,0 -9.65,-6.12 -9.65,-7.76 0,-0.7 0.73,-0.7 1.18,-0.7 0.6,0 0.96,0 1.14,0.65 1.46,4.53 5.05,6.02 7.08,6.02 1.89,0 2.8,-0.89 2.8,-2.49 0,-0.95 -0.7,-3.68 -1.16,-5.48 l -1.68,-6.83 c -0.75,-3.03 -2.55,-4.53 -4.24,-4.53 -0.25,0 -1.39,0 -2.39,0.75 1.8,0.5 2.69,2.19 2.69,3.44 0,1.09 -0.85,2.29 -2.49,2.29 -1.75,0 -3.59,-1.45 -3.59,-3.89 0,-2.64 2.64,-4.39 5.69,-4.39 2.83,0 4.67,2.16 5.33,3.05 1.25,-2.09 4.03,-3.05 6.87,-3.05 6.28,0 9.66,6.14 9.66,7.78 0,0.71 -0.74,0.71 -1.19,0.71 -0.59,0 -0.95,0 -1.14,-0.66 -1.45,-4.53 -5.03,-6.03 -7.08,-6.03 -1.89,0 -2.8,0.91 -2.8,2.5 0,1.05 0.66,3.69 1.1,5.53 0.36,1.3 1.5,5.97 1.75,6.77 0.75,3 2.48,4.53 4.23,4.53 0.25,0 1.39,0 2.39,-0.74 z"
         id="path6249" /></g>
    <g
       style="font-style:normal;font-variant:normal;font-weight:normal;font-stretch:normal;letter-spacing:normal;word-spacing:normal;text-anchor:start;fill:none;fill-opacity:1;fill-rule:evenodd;stroke:#000000;stroke-linecap:butt;stroke-linejoin:miter;stroke-miterlimit:10.433;stroke-dasharray:none;stroke-dashoffset:0;stroke-opacity:1"
       id="content"
       transform="matrix(0.3,0,0,-0.3,-63.252372,258.07734)"
       xml:space="preserve"
       stroke-miterlimit="10.433"
       font-style="normal"
       font-variant="normal"
       font-weight="normal"
       font-stretch="normal"
       font-size-adjust="none"
       letter-spacing="normal"
       word-spacing="normal"><path
         style="fill:#000000;stroke-width:0"
         inkscape:connector-curvature="0"
         d="m 463.64,409.54 -0.01,-0.07 -0.02,-0.07 -0.02,-0.06 -0.02,-0.06 -0.01,-0.06 -0.02,-0.05 -0.02,-0.05 -0.01,-0.05 -0.02,-0.04 -0.02,-0.04 -0.02,-0.04 -0.02,-0.03 -0.02,-0.04 -0.03,-0.03 -0.02,-0.02 -0.03,-0.03 -0.03,-0.02 -0.03,-0.02 -0.03,-0.02 -0.04,-0.02 -0.04,-0.01 -0.04,-0.02 -0.05,-0.01 -0.05,-0.01 -0.05,-0.01 -0.06,-0.02 -0.06,-0.01 h -0.06 l -0.07,-0.01 -0.03,-0.01 h -0.04 l -0.04,-0.01 h -0.04 l -0.04,-0.01 h -0.04 c -0.85,-0.05 -1.85,-0.05 -2.64,-0.05 -1.28,0 -1.39,0 -1.6,-0.11 -0.59,-0.34 -0.59,-1.14 -0.59,-1.34 0,-0.89 0.91,-0.89 1.7,-0.89 h 21.11 c 10.42,0 15.11,6.58 15.11,11.01 0,4.29 -3.75,6.43 -8.33,6.83 7.97,1.44 10.82,6.08 10.82,9.41 0,4.09 -3.6,6.92 -10.61,6.92 l -1.14,-2.34 c 0.98,0 5.03,0 5.03,-4.33 0,-3.49 -2.8,-8.81 -9.58,-8.81 h -7.86 l -0.45,-1.8 h 9.72 c 1.29,0 5.46,0 5.46,-5.08 0,-3.84 -2.53,-9.47 -9.6,-9.47 h -7.97 c -0.75,0 -0.85,0 -1.21,0.05 l 3.6,14.5 0.45,1.8 3.08,12.25 c 0.2,0.75 0.25,0.79 0.55,0.84 0.45,0.05 0.79,0.05 1.34,0.05 h 7.44 l 1.14,2.34 h -19.99 c -1,0 -1.84,0 -1.84,-1.44 0,-0.9 0.66,-0.9 2.09,-0.9 1.05,0 2,-0.05 3.05,-0.1 z"
         id="path6323" /><polyline
         style="fill:#000000;fill-rule:nonzero;stroke-width:0"
         points="456,398 501.6,398 501.6,400.04 456,400.04 "
         id="polyline6325" /></g>
    <g
       id="g6755"
       transform="translate(-14.550828,1.00212)">
      <path
         style="font-style:normal;font-variant:normal;font-weight:normal;font-stretch:normal;letter-spacing:normal;word-spacing:normal;text-anchor:start;fill:#000000;fill-opacity:1;fill-rule:evenodd;stroke:#000000;stroke-width:0;stroke-linecap:butt;stroke-linejoin:miter;stroke-miterlimit:10.433;stroke-dasharray:none;stroke-dashoffset:0;stroke-opacity:1"
         inkscape:connector-curvature="0"
         d="m 109.80001,158.87341 -0.015,0.054 -0.012,0.051 -0.015,0.048 -0.012,0.045 -0.012,0.045 -0.015,0.039 -0.015,0.039 -0.015,0.036 -0.015,0.033 -0.018,0.033 -0.021,0.03 -0.021,0.027 -0.021,0.027 -0.027,0.021 -0.027,0.024 -0.033,0.018 -0.033,0.021 -0.039,0.015 -0.039,0.015 -0.045,0.015 -0.048,0.012 -0.027,0.006 -0.027,0.003 -0.027,0.006 -0.03,0.006 -0.03,0.003 -0.03,0.003 -0.033,0.003 -0.036,0.006 -0.033,0.003 -0.039,0.003 h -0.036 l -0.039,0.003 -0.042,0.003 h -0.042 l -0.042,0.003 h -0.045 l -0.048,0.003 h -0.048 -0.048 -0.051 -0.054 -0.054 c -0.255,0 -0.405,0 -0.405,0.3 0,0.165 0.138,0.165 0.405,0.165 h 5.334 c 2.361,0 4.125,-1.761 4.125,-3.228 0,-1.074 -0.867,-1.941 -2.316,-2.106 1.557,-0.285 3.126,-1.392 3.126,-2.814 0,-1.104 -0.99,-2.061 -2.784,-2.061 l -0.207,0.465 c 1.314,0 1.626,0.879 1.626,1.536 0,1.317 -1.284,2.739 -3.105,2.739 h -2.181 l -0.09,0.327 h 2.823 c 1.434,0 1.719,1.107 1.719,1.749 0,1.482 -1.329,2.928 -3.093,2.928 h -2.034 c -0.207,0 -0.24,0 -0.327,-0.012 -0.15,-0.015 -0.192,-0.03 -0.192,-0.15 0,-0.042 0,-0.075 0.075,-0.342 l 1.029,-4.173 0.09,-0.327 0.924,-3.708 c 0.135,-0.522 0.162,-0.567 0.81,-0.567 h 1.926 l 0.207,-0.465 h -5.019 c -0.282,0 -0.432,0 -0.432,0.3 0,0.165 0.132,0.165 0.417,0.165 0.027,0 0.315,0 0.567,0.027 0.267,0.033 0.402,0.048 0.402,0.24 0,0.06 -0.012,0.108 -0.06,0.285 z"
         id="path6403" />
      <polyline
         transform="matrix(0.3,0,0,-0.3,-29.246992,281.90041)"
         style="font-style:normal;font-variant:normal;font-weight:normal;font-stretch:normal;letter-spacing:normal;word-spacing:normal;text-anchor:start;fill:#000000;fill-opacity:1;fill-rule:nonzero;stroke:#000000;stroke-width:0;stroke-linecap:butt;stroke-linejoin:miter;stroke-miterlimit:10.433;stroke-dasharray:none;stroke-dashoffset:0;stroke-opacity:1"
         points="456,398 496.32,398 496.32,400.04 456,400.04 "
         id="polyline6405" />
      <path
         style="font-style:normal;font-variant:normal;font-weight:normal;font-stretch:normal;letter-spacing:normal;word-spacing:normal;text-anchor:start;fill:#000000;fill-opacity:1;fill-rule:evenodd;stroke:#000000;stroke-width:0;stroke-linecap:butt;stroke-linejoin:miter;stroke-miterlimit:10.433;stroke-dasharray:none;stroke-dashoffset:0;stroke-opacity:1"
         inkscape:connector-curvature="0"
         d="m 122.10601,162.67741 -0.009,0.036 -0.012,0.033 -0.015,0.036 -0.012,0.036 -0.018,0.039 -0.018,0.036 -0.018,0.039 -0.021,0.039 -0.021,0.039 -0.021,0.036 -0.024,0.039 -0.027,0.039 -0.027,0.036 -0.027,0.039 -0.03,0.036 -0.03,0.033 -0.03,0.036 -0.033,0.033 -0.036,0.033 -0.036,0.03 -0.036,0.027 -0.036,0.027 -0.039,0.027 -0.042,0.021 -0.039,0.021 -0.045,0.018 -0.042,0.018 -0.045,0.012 -0.045,0.012 -0.048,0.006 -0.048,0.006 -0.048,0.003 c -0.033,0 -0.348,0 -0.567,-0.147 0.429,-0.135 0.459,-0.516 0.459,-0.576 0,-0.231 -0.18,-0.39 -0.417,-0.39 -0.291,0 -0.597,0.255 -0.597,0.642 0,0.522 0.585,0.759 1.098,0.759 0.483,0 0.909,-0.3 1.17,-0.738 0.249,0.552 0.825,0.738 1.242,0.738 1.206,0 1.842,-1.302 1.842,-1.596 0,-0.138 -0.135,-0.138 -0.168,-0.138 -0.144,0 -0.153,0.054 -0.195,0.18 -0.222,0.72 -0.849,1.266 -1.434,1.266 -0.42,0 -0.639,-0.282 -0.639,-0.681 0,-0.273 0.252,-1.224 0.543,-2.385 0.213,-0.801 0.681,-1.065 1.029,-1.065 0.018,0 0.339,0 0.561,0.147 -0.333,0.093 -0.459,0.387 -0.459,0.576 0,0.228 0.177,0.384 0.417,0.384 0.243,0 0.585,-0.198 0.585,-0.639 0,-0.585 -0.669,-0.759 -1.086,-0.759 -0.522,0 -0.942,0.342 -1.173,0.741 -0.186,-0.432 -0.666,-0.741 -1.251,-0.741 -1.173,0 -1.842,1.284 -1.842,1.599 0,0.135 0.15,0.135 0.177,0.135 0.138,0 0.147,-0.042 0.201,-0.177 0.258,-0.816 0.921,-1.266 1.431,-1.266 0.348,0 0.627,0.189 0.627,0.69 0,0.21 -0.126,0.729 -0.219,1.086 z"
         id="path6407" />
    </g>
    <path
       id="path6409"
       d="m 202.68722,167.75957 0.009,-0.039 0.012,-0.045 0.012,-0.048 0.015,-0.054 0.015,-0.057 0.018,-0.063 0.018,-0.066 0.024,-0.066 0.024,-0.069 0.024,-0.072 0.03,-0.075 0.03,-0.072 0.033,-0.075 0.036,-0.075 0.039,-0.075 0.042,-0.075 0.045,-0.072 0.045,-0.072 0.051,-0.069 0.054,-0.066 0.057,-0.066 0.057,-0.06 0.063,-0.057 0.066,-0.054 0.072,-0.048 0.072,-0.042 0.039,-0.021 0.039,-0.018 0.039,-0.015 0.042,-0.015 0.039,-0.015 0.045,-0.012 0.042,-0.009 0.045,-0.009 0.045,-0.006 0.048,-0.006 0.048,-0.003 h 0.048 c 0.075,0 0.432,0 0.744,0.192 -0.417,0.075 -0.717,0.45 -0.717,0.807 0,0.237 0.165,0.525 0.567,0.525 0.33,0 0.807,-0.267 0.807,-0.867 0,-0.78 -0.882,-0.984 -1.386,-0.984 -0.867,0 -1.392,0.792 -1.572,1.134 -0.375,-0.984 -1.179,-1.134 -1.611,-1.134 -1.557,0 -2.409,1.926 -2.409,2.301 0,0.15 0.15,0.15 0.183,0.15 0.117,0 0.162,-0.033 0.192,-0.165 0.504,-1.584 1.494,-1.959 2.001,-1.959 0.285,0 0.807,0.132 0.807,0.999 0,0.462 -0.255,1.467 -0.807,3.558 -0.24,0.927 -0.759,1.554 -1.422,1.554 -0.087,0 -0.429,0 -0.744,-0.195 0.375,-0.072 0.702,-0.384 0.702,-0.807 0,-0.402 -0.327,-0.519 -0.552,-0.519 -0.45,0 -0.825,0.387 -0.825,0.867 0,0.684 0.75,0.984 1.407,0.984 0.987,0 1.521,-1.047 1.569,-1.134 0.18,0.552 0.717,1.134 1.614,1.134 1.542,0 2.394,-1.926 2.394,-2.301 0,-0.15 -0.135,-0.15 -0.183,-0.15 -0.132,0 -0.165,0.06 -0.192,0.162 -0.492,1.599 -1.509,1.959 -1.986,1.959 -0.588,0 -0.825,-0.477 -0.825,-0.987 0,-0.33 0.087,-0.657 0.258,-1.314 z"
       inkscape:connector-curvature="0"
       style="font-style:normal;font-variant:normal;font-weight:normal;font-stretch:normal;letter-spacing:normal;word-spacing:normal;text-anchor:start;fill:#000000;fill-opacity:1;fill-rule:evenodd;stroke:#000000;stroke-width:0;stroke-linecap:butt;stroke-linejoin:miter;stroke-miterlimit:10.433;stroke-dasharray:none;stroke-dashoffset:0;stroke-opacity:1" />
    <path
       id="path6411"
       d="m 31.642887,13.495369 0.003,-0.012 0.003,-0.009 0.003,-0.018 0.006,-0.015 0.003,-0.018 0.003,-0.015 0.006,-0.012 0.003,-0.015 0.003,-0.012 0.003,-0.012 v -0.012 l 0.003,-0.012 0.003,-0.012 0.003,-0.009 v -0.009 l 0.003,-0.009 v -0.009 l 0.003,-0.009 v -0.009 l 0.003,-0.015 v -0.018 -0.015 -0.015 l 0.003,-0.015 v -0.009 -0.009 -0.009 -0.009 c 0,-0.273 -0.207,-0.405 -0.432,-0.405 -0.15,0 -0.39,0.09 -0.525,0.315 -0.03,0.075 -0.15,0.534 -0.207,0.807 -0.108,0.387 -0.21,0.792 -0.3,1.194 l -0.675,2.691 c -0.057,0.225 -0.699,1.269 -1.686,1.269 -0.762,0 -0.93,-0.654 -0.93,-1.209 0,-0.687 0.258,-1.617 0.765,-2.928 0.24,-0.615 0.3,-0.78 0.3,-1.08 0,-0.669 -0.477,-1.221 -1.227,-1.221 -1.422,0 -1.974,2.163 -1.974,2.301 0,0.15 0.15,0.15 0.183,0.15 0.15,0 0.162,-0.033 0.237,-0.273 0.405,-1.407 0.999,-1.851 1.509,-1.851 0.117,0 0.375,0 0.375,0.477 0,0.375 -0.15,0.759 -0.258,1.047 -0.594,1.584 -0.867,2.436 -0.867,3.141 0,1.326 0.945,1.776 1.824,1.776 0.588,0 1.092,-0.255 1.509,-0.672 -0.192,0.774 -0.369,1.509 -0.969,2.304 -0.39,0.504 -0.957,0.942 -1.647,0.942 -0.204,0 -0.879,-0.048 -1.134,-0.63 0.24,0 0.438,0 0.642,-0.183 0.15,-0.129 0.3,-0.327 0.3,-0.609 0,-0.465 -0.402,-0.525 -0.552,-0.525 -0.342,0 -0.84,0.24 -0.84,0.972 0,0.75 0.663,1.302 1.584,1.302 1.545,0 3.081,-1.365 3.504,-3.051 z"
       inkscape:connector-curvature="0"
       style="font-style:normal;font-variant:normal;font-weight:normal;font-stretch:normal;letter-spacing:normal;word-spacing:normal;text-anchor:start;fill:#000000;fill-opacity:1;fill-rule:evenodd;stroke:#000000;stroke-width:0;stroke-linecap:butt;stroke-linejoin:miter;stroke-miterlimit:10.433;stroke-dasharray:none;stroke-dashoffset:0;stroke-opacity:1" />
    <g
       id="g6750"
       transform="translate(-61.204722,-44.099472)">
      <path
         style="font-style:normal;font-variant:normal;font-weight:normal;font-stretch:normal;letter-spacing:normal;word-spacing:normal;text-anchor:start;fill:#000000;fill-opacity:1;fill-rule:evenodd;stroke:#000000;stroke-width:0;stroke-linecap:butt;stroke-linejoin:miter;stroke-miterlimit:10.433;stroke-dasharray:none;stroke-dashoffset:0;stroke-opacity:1"
         inkscape:connector-curvature="0"
         d="m 150.04801,149.60641 -0.009,-0.018 -0.009,-0.018 -0.009,-0.015 -0.009,-0.015 -0.009,-0.015 -0.009,-0.015 -0.006,-0.015 -0.009,-0.012 -0.006,-0.012 -0.009,-0.012 -0.009,-0.012 -0.009,-0.009 -0.006,-0.012 -0.009,-0.009 -0.009,-0.009 -0.012,-0.009 -0.009,-0.006 -0.009,-0.009 -0.012,-0.006 -0.012,-0.006 -0.012,-0.006 -0.015,-0.003 -0.012,-0.006 -0.015,-0.003 -0.015,-0.003 -0.018,-0.003 -0.018,-0.003 -0.018,-0.003 h -0.021 l -0.021,-0.003 h -0.021 -0.024 c -0.252,0 -0.282,0.075 -0.384,0.267 l -0.093,1.227 4.02,8.073 h -8.058 l 4.038,-8.073 0.093,-1.227 -5.052,10.134 c -0.075,0.135 -0.075,0.165 -0.075,0.177 0,0.123 0.087,0.123 0.327,0.123 h 10.374 c 0.24,0 0.327,0 0.327,-0.123 0,-0.012 0,-0.042 -0.075,-0.177 z"
         id="path6413" />
      <path
         style="font-style:normal;font-variant:normal;font-weight:normal;font-stretch:normal;letter-spacing:normal;word-spacing:normal;text-anchor:start;fill:#000000;fill-opacity:1;fill-rule:evenodd;stroke:#000000;stroke-width:0;stroke-linecap:butt;stroke-linejoin:miter;stroke-miterlimit:10.433;stroke-dasharray:none;stroke-dashoffset:0;stroke-opacity:1"
         inkscape:connector-curvature="0"
         d="m 160.89001,155.52541 0.009,-0.039 0.012,-0.045 0.012,-0.048 0.015,-0.054 0.015,-0.057 0.018,-0.063 0.018,-0.066 0.024,-0.066 0.024,-0.069 0.024,-0.072 0.03,-0.075 0.03,-0.072 0.033,-0.075 0.036,-0.075 0.039,-0.075 0.042,-0.075 0.045,-0.072 0.045,-0.072 0.051,-0.069 0.054,-0.066 0.057,-0.066 0.057,-0.06 0.063,-0.057 0.066,-0.054 0.072,-0.048 0.072,-0.042 0.039,-0.021 0.039,-0.018 0.039,-0.015 0.042,-0.015 0.039,-0.015 0.045,-0.012 0.042,-0.009 0.045,-0.009 0.045,-0.006 0.048,-0.006 0.048,-0.003 h 0.048 c 0.075,0 0.432,0 0.747,0.192 -0.42,0.075 -0.72,0.45 -0.72,0.807 0,0.237 0.165,0.525 0.57,0.525 0.327,0 0.804,-0.267 0.804,-0.867 0,-0.78 -0.879,-0.984 -1.386,-0.984 -0.867,0 -1.392,0.792 -1.572,1.134 -0.375,-0.984 -1.182,-1.134 -1.611,-1.134 -1.557,0 -2.409,1.926 -2.409,2.301 0,0.15 0.15,0.15 0.183,0.15 0.117,0 0.162,-0.033 0.192,-0.165 0.504,-1.584 1.494,-1.959 2.001,-1.959 0.285,0 0.807,0.132 0.807,0.999 0,0.462 -0.255,1.467 -0.807,3.558 -0.24,0.927 -0.759,1.554 -1.422,1.554 -0.087,0 -0.429,0 -0.744,-0.195 0.375,-0.072 0.702,-0.384 0.702,-0.807 0,-0.402 -0.327,-0.519 -0.552,-0.519 -0.45,0 -0.825,0.387 -0.825,0.867 0,0.684 0.75,0.984 1.407,0.984 0.987,0 1.521,-1.047 1.569,-1.134 0.177,0.552 0.717,1.134 1.614,1.134 1.542,0 2.394,-1.926 2.394,-2.301 0,-0.15 -0.135,-0.15 -0.183,-0.15 -0.132,0 -0.162,0.06 -0.192,0.162 -0.492,1.599 -1.509,1.959 -1.986,1.959 -0.588,0 -0.825,-0.477 -0.825,-0.987 0,-0.33 0.087,-0.657 0.255,-1.314 z"
         id="path6415" />
    </g>
    <g
       id="g6746"
       transform="translate(-117.59859,-74.568198)">
      <path
         style="font-style:normal;font-variant:normal;font-weight:normal;font-stretch:normal;letter-spacing:normal;word-spacing:normal;text-anchor:start;fill:#000000;fill-opacity:1;fill-rule:evenodd;stroke:#000000;stroke-width:0;stroke-linecap:butt;stroke-linejoin:miter;stroke-miterlimit:10.433;stroke-dasharray:none;stroke-dashoffset:0;stroke-opacity:1"
         inkscape:connector-curvature="0"
         d="m 171.03301,149.60641 -0.009,-0.018 -0.009,-0.018 -0.009,-0.015 -0.006,-0.015 -0.009,-0.015 -0.009,-0.015 -0.006,-0.015 -0.009,-0.012 -0.009,-0.012 -0.006,-0.012 -0.009,-0.012 -0.009,-0.009 -0.009,-0.012 -0.009,-0.009 -0.009,-0.009 -0.009,-0.009 -0.009,-0.006 -0.012,-0.009 -0.009,-0.006 -0.012,-0.006 -0.015,-0.006 -0.012,-0.003 -0.015,-0.006 -0.012,-0.003 -0.018,-0.003 -0.015,-0.003 -0.018,-0.003 -0.018,-0.003 h -0.021 l -0.021,-0.003 h -0.021 -0.024 c -0.252,0 -0.282,0.075 -0.384,0.267 l -0.093,1.227 4.02,8.073 h -8.058 l 4.038,-8.073 0.093,-1.227 -5.055,10.134 c -0.075,0.135 -0.075,0.165 -0.075,0.177 0,0.123 0.09,0.123 0.33,0.123 h 10.371 c 0.24,0 0.33,0 0.33,-0.123 0,-0.012 0,-0.042 -0.075,-0.177 z"
         id="path6417" />
      <path
         style="font-style:normal;font-variant:normal;font-weight:normal;font-stretch:normal;letter-spacing:normal;word-spacing:normal;text-anchor:start;fill:#000000;fill-opacity:1;fill-rule:evenodd;stroke:#000000;stroke-width:0;stroke-linecap:butt;stroke-linejoin:miter;stroke-miterlimit:10.433;stroke-dasharray:none;stroke-dashoffset:0;stroke-opacity:1"
         inkscape:connector-curvature="0"
         d="m 184.15201,154.34641 0.003,-0.012 0.003,-0.009 0.003,-0.018 0.006,-0.015 0.003,-0.018 0.003,-0.015 0.006,-0.012 0.003,-0.015 0.003,-0.012 0.003,-0.012 v -0.012 l 0.003,-0.012 0.003,-0.012 0.003,-0.009 v -0.009 l 0.003,-0.009 v -0.009 l 0.003,-0.009 v -0.009 l 0.003,-0.015 v -0.018 -0.015 -0.015 l 0.003,-0.015 v -0.009 -0.009 -0.009 -0.009 c 0,-0.273 -0.207,-0.405 -0.432,-0.405 -0.15,0 -0.39,0.09 -0.525,0.315 -0.03,0.075 -0.15,0.534 -0.207,0.807 -0.108,0.387 -0.21,0.792 -0.3,1.194 l -0.675,2.691 c -0.057,0.225 -0.699,1.269 -1.686,1.269 -0.762,0 -0.93,-0.654 -0.93,-1.209 0,-0.687 0.258,-1.617 0.765,-2.928 0.24,-0.615 0.3,-0.78 0.3,-1.08 0,-0.669 -0.48,-1.221 -1.23,-1.221 -1.419,0 -1.971,2.163 -1.971,2.301 0,0.15 0.15,0.15 0.183,0.15 0.15,0 0.162,-0.033 0.237,-0.273 0.405,-1.407 0.999,-1.851 1.509,-1.851 0.12,0 0.375,0 0.375,0.477 0,0.375 -0.15,0.759 -0.255,1.047 -0.597,1.584 -0.87,2.436 -0.87,3.141 0,1.326 0.942,1.776 1.824,1.776 0.588,0 1.092,-0.255 1.509,-0.672 -0.192,0.774 -0.369,1.509 -0.969,2.304 -0.39,0.504 -0.957,0.942 -1.644,0.942 -0.207,0 -0.882,-0.048 -1.137,-0.63 0.24,0 0.438,0 0.642,-0.183 0.15,-0.129 0.3,-0.327 0.3,-0.609 0,-0.465 -0.402,-0.525 -0.552,-0.525 -0.342,0 -0.84,0.24 -0.84,0.972 0,0.75 0.663,1.302 1.587,1.302 1.542,0 3.078,-1.365 3.501,-3.051 z"
         id="path6419" />
    </g>
    <g
       style="font-style:normal;font-variant:normal;font-weight:normal;font-stretch:normal;letter-spacing:normal;word-spacing:normal;text-anchor:start;fill:none;fill-opacity:1;fill-rule:evenodd;stroke:#000000;stroke-linecap:butt;stroke-linejoin:miter;stroke-miterlimit:10.433;stroke-dasharray:none;stroke-dashoffset:0;stroke-opacity:1"
       id="g6518"
       transform="matrix(0.3,0,0,-0.3,-78.379444,164.03421)"
       xml:space="preserve"
       stroke-miterlimit="10.433"
       font-style="normal"
       font-variant="normal"
       font-weight="normal"
       font-stretch="normal"
       font-size-adjust="none"
       letter-spacing="normal"
       word-spacing="normal"><path
         style="fill:#000000;stroke-width:0"
         inkscape:connector-curvature="0"
         d="m 458.11,399.78 -0.01,-0.04 -0.01,-0.03 v -0.03 l -0.01,-0.03 -0.01,-0.03 -0.01,-0.02 -0.01,-0.03 -0.01,-0.03 v -0.02 l -0.01,-0.03 -0.01,-0.02 -0.01,-0.02 v -0.03 l -0.01,-0.02 -0.01,-0.02 v -0.02 l -0.01,-0.02 v -0.02 l -0.01,-0.01 -0.01,-0.02 v -0.02 l -0.01,-0.01 v -0.02 l -0.01,-0.01 -0.01,-0.03 -0.01,-0.02 -0.01,-0.03 v -0.02 l -0.01,-0.02 -0.01,-0.01 -0.01,-0.02 v -0.01 l -0.01,-0.01 -0.01,-0.02 v -0.01 h -0.01 v -0.01 l -0.01,-0.01 V 399 h -0.01 l -0.01,-0.01 v -0.01 c -0.3,-0.11 -0.86,-0.11 -1.3,-0.11 -0.84,0 -1.75,0 -1.75,-1.39 0,-0.55 0.41,-0.95 0.95,-0.95 1.44,0 3.08,0.15 4.58,0.15 1.75,0 3.64,-0.15 5.33,-0.15 0.36,0 1.3,0 1.3,1.45 0,0.84 -0.8,0.89 -1.3,0.89 -0.69,0 -1.49,0 -2.14,0.05 l 2.14,8.67 c 0.75,-0.69 2.39,-1.8 5.03,-1.8 l -0.09,1.8 c -2.94,0 -4.14,2.34 -4.14,2.89 l 0.11,0.7 3.03,12.5 c 1.45,1.71 3.79,3.24 6.18,3.24 3.08,0 3.33,-2.69 3.33,-3.78 0,-2.6 -1.69,-8.72 -2.48,-10.66 -1.55,-3.64 -3.99,-4.89 -6.03,-4.89 l 0.09,-1.8 c 8.67,0 14.06,7.88 14.06,14.71 0,6.12 -4.59,8.21 -8.72,8.21 -3.54,0 -6.14,-1.93 -6.93,-2.68 -1.89,2.68 -5.18,2.68 -5.72,2.68 -1.85,0 -3.3,-1.04 -4.35,-2.84 -1.25,-1.98 -1.89,-4.67 -1.89,-4.92 0,-0.7 0.75,-0.7 1.21,-0.7 0.54,0 0.73,0 0.98,0.25 0.11,0.09 0.11,0.2 0.41,1.45 1,3.98 2.14,4.97 3.39,4.97 0.54,0 1.14,-0.19 1.14,-1.85 0,-0.73 -0.1,-1.43 -0.3,-2.14 z"
         id="path6516" /></g>
    <g
       style="font-style:normal;font-variant:normal;font-weight:normal;font-stretch:normal;letter-spacing:normal;word-spacing:normal;text-anchor:start;fill:none;fill-opacity:1;fill-rule:evenodd;stroke:#000000;stroke-linecap:butt;stroke-linejoin:miter;stroke-miterlimit:10.433;stroke-dasharray:none;stroke-dashoffset:0;stroke-opacity:1"
       id="g6614"
       transform="matrix(0.3,0,0,-0.3,-9.5717838,257.92535)"
       xml:space="preserve"
       stroke-miterlimit="10.433"
       font-style="normal"
       font-variant="normal"
       font-weight="normal"
       font-stretch="normal"
       font-size-adjust="none"
       letter-spacing="normal"
       word-spacing="normal"><path
         style="fill:#000000;stroke-width:0"
         inkscape:connector-curvature="0"
         d="m 463.49,410.09 -0.05,-0.18 -0.04,-0.17 -0.05,-0.16 -0.04,-0.15 -0.04,-0.15 -0.05,-0.13 -0.05,-0.13 -0.05,-0.12 -0.05,-0.11 -0.06,-0.11 -0.07,-0.1 -0.07,-0.09 -0.07,-0.09 -0.09,-0.07 -0.09,-0.08 -0.11,-0.06 -0.11,-0.07 -0.13,-0.05 -0.13,-0.05 -0.15,-0.05 -0.16,-0.04 -0.09,-0.02 -0.09,-0.01 -0.09,-0.02 -0.1,-0.02 -0.1,-0.01 -0.1,-0.01 -0.11,-0.01 -0.12,-0.02 -0.11,-0.01 -0.13,-0.01 h -0.12 l -0.13,-0.01 -0.14,-0.01 h -0.14 l -0.14,-0.01 h -0.15 l -0.16,-0.01 h -0.16 -0.16 -0.17 -0.18 -0.18 c -0.85,0 -1.35,0 -1.35,-1 0,-0.55 0.46,-0.55 1.35,-0.55 h 17.78 c 7.87,0 13.75,5.87 13.75,10.76 0,3.58 -2.89,6.47 -7.72,7.02 5.19,0.95 10.42,4.64 10.42,9.38 0,3.68 -3.3,6.87 -9.28,6.87 l -0.69,-1.55 c 4.38,0 5.42,-2.93 5.42,-5.12 0,-4.39 -4.28,-9.13 -10.35,-9.13 h -7.27 l -0.3,-1.09 h 9.41 c 4.78,0 5.73,-3.69 5.73,-5.83 0,-4.94 -4.43,-9.76 -10.31,-9.76 h -6.78 c -0.69,0 -0.8,0 -1.09,0.04 -0.5,0.05 -0.64,0.1 -0.64,0.5 0,0.14 0,0.25 0.25,1.14 l 3.43,13.91 0.3,1.09 3.08,12.36 c 0.45,1.74 0.54,1.89 2.7,1.89 h 6.42 l 0.69,1.55 h -16.73 c -0.94,0 -1.44,0 -1.44,-1 0,-0.55 0.44,-0.55 1.39,-0.55 0.09,0 1.05,0 1.89,-0.09 0.89,-0.11 1.34,-0.16 1.34,-0.8 0,-0.2 -0.04,-0.36 -0.2,-0.95 z"
         id="path6608" /><polyline
         style="fill:#000000;fill-rule:nonzero;stroke-width:0"
         points="456,398 496.32,398 496.32,400.04 456,400.04 "
         id="polyline6610" /><path
         style="fill:#000000;stroke-width:0"
         inkscape:connector-curvature="0"
         d="m 515.22,406.86 v 0.02 l 0.01,0.02 v 0.02 l 0.01,0.03 0.01,0.02 v 0.01 l 0.01,0.04 0.01,0.04 0.01,0.03 0.01,0.03 0.01,0.03 v 0.03 l 0.01,0.03 0.01,0.02 v 0.03 l 0.01,0.02 v 0.02 0.02 l 0.01,0.02 v 0.02 0.02 l 0.01,0.02 v 0.01 0.04 0.03 0.03 0.04 0.02 0.02 0.01 0.02 c 0,0.69 -0.56,1.11 -1.15,1.11 -0.38,0 -1.05,-0.17 -1.42,-0.82 -0.11,-0.22 -0.39,-1.33 -0.56,-2.03 l -0.74,-2.9 c -0.2,-0.82 -1.28,-5.21 -1.39,-5.6 -0.03,0 -1.56,-3.04 -4.28,-3.04 -2.38,0 -2.38,2.27 -2.38,2.89 0,1.89 0.8,4.08 1.85,6.77 0.42,1.11 0.59,1.53 0.59,2.12 0,1.68 -1.42,2.96 -3.31,2.96 -3.52,0 -5.08,-4.74 -5.08,-5.33 0,-0.45 0.48,-0.45 0.59,-0.45 0.49,0 0.52,0.17 0.63,0.56 0.87,2.89 2.37,4.25 3.76,4.25 0.6,0 0.86,-0.39 0.86,-1.22 0,-0.8 -0.31,-1.56 -0.48,-2.01 -1.67,-4.26 -2.02,-5.55 -2.02,-7.08 0,-0.6 0,-2.24 1.36,-3.35 1.08,-0.9 2.55,-1.07 3.49,-1.07 1.39,0 2.64,0.51 3.79,1.56 -0.45,-1.92 -0.84,-3.38 -2.29,-5.13 -0.94,-1.08 -2.35,-2.22 -4.19,-2.22 -0.23,0 -1.87,0 -2.61,1.14 1.88,0.21 1.88,1.89 1.88,1.93 0,1.11 -1,1.31 -1.36,1.31 -0.86,0 -2.02,-0.69 -2.02,-2.3 0,-1.76 1.67,-3.06 4.14,-3.06 3.53,0 7.81,2.72 8.89,7.08 z"
         id="path6612" /></g>
    <g
       style="font-style:normal;font-variant:normal;font-weight:normal;font-stretch:normal;letter-spacing:normal;word-spacing:normal;text-anchor:start;fill:none;fill-opacity:1;fill-rule:evenodd;stroke:#000000;stroke-linecap:butt;stroke-linejoin:miter;stroke-miterlimit:10.433;stroke-dasharray:none;stroke-dashoffset:0;stroke-opacity:1"
       id="g6715"
       transform="matrix(0.3,0,0,-0.3,-60.115861,149.49844)"
       xml:space="preserve"
       stroke-miterlimit="10.433"
       font-style="normal"
       font-variant="normal"
       font-weight="normal"
       font-stretch="normal"
       font-size-adjust="none"
       letter-spacing="normal"
       word-spacing="normal"><path
         style="fill:#000000;stroke-width:0"
         inkscape:connector-curvature="0"
         d="m 474.16,436.39 0.04,0.16 0.04,0.16 0.04,0.15 0.04,0.14 0.04,0.14 0.04,0.13 0.05,0.12 0.05,0.11 0.05,0.11 0.06,0.11 0.07,0.09 0.07,0.09 0.08,0.09 0.08,0.08 0.1,0.07 0.1,0.07 0.12,0.06 0.12,0.06 0.14,0.05 0.15,0.05 0.17,0.04 0.08,0.02 0.09,0.02 0.1,0.02 0.1,0.02 0.1,0.01 0.1,0.02 0.11,0.01 0.12,0.01 0.12,0.02 0.12,0.01 0.13,0.01 h 0.13 l 0.13,0.01 0.14,0.01 0.15,0.01 h 0.15 0.16 l 0.16,0.01 h 0.16 0.17 0.18 0.18 c 1.19,0 1.6,0 1.6,0.96 0,0.59 -0.55,0.59 -0.75,0.59 -1.46,0 -5.15,-0.16 -6.58,-0.16 -1.5,0 -5.13,0.16 -6.63,0.16 -0.34,0 -1,0 -1,-1 0,-0.55 0.46,-0.55 1.39,-0.55 2.1,0 3.44,0 3.44,-0.95 0,-0.25 0,-0.34 -0.09,-0.8 l -6.72,-26.84 c -0.46,-1.84 -0.61,-2.34 -4.55,-2.34 -1.14,0 -1.59,0 -1.59,-1 0,-0.55 0.61,-0.55 0.75,-0.55 1.45,0 5.08,0.16 6.53,0.16 1.5,0 5.19,-0.16 6.67,-0.16 0.41,0 1,0 1,0.95 0,0.6 -0.41,0.6 -1.5,0.6 -0.89,0 -1.14,0 -2.14,0.09 -1.05,0.11 -1.23,0.3 -1.23,0.84 0,0.41 0.09,0.8 0.18,1.16 z"
         id="path6711" /><polyline
         style="fill:#000000;fill-rule:nonzero;stroke-width:0"
         points="456,398 481.92,398 481.92,400.04 456,400.04 "
         id="polyline6713" /></g>
    <g
       id="g6800"
       transform="translate(41.961316,1.3363476)">
      <circle
         r="5.7641373"
         cy="38.180798"
         cx="47.908482"
         id="path6771"
         style="fill:none;fill-opacity:1;stroke:#000000;stroke-width:0.264583" />
      <path
         transform="scale(0.26458333)"
         id="path6793"
         d="m 165.67624,159.70061 30.79038,-30.7904"
         style="fill:none;stroke:#000000;stroke-width:1px;stroke-linecap:butt;stroke-linejoin:miter;stroke-opacity:1"
         inkscape:connector-curvature="0" />
      <path
         transform="scale(0.26458333)"
         id="path6786"
         d="m 165.67624,128.91015 30.79038,30.79039"
         style="fill:none;stroke:#000000;stroke-width:1px;stroke-linecap:butt;stroke-linejoin:miter;stroke-opacity:1"
         inkscape:connector-curvature="0" />
    </g>
  </g>
</svg>
